"{\n  \"artists\" : {\n    \"href\" : \"https://api.spotify.com/v1/search?query=muse&type=artist&market=US&offset=5&limit=1\",\n    \"items\" : [ {\n      \"external_urls\" : {\n        \"spotify\" : \"https://open.spotify.com/artist/4j3YTfoiuiaugTc2cV1eSy\"\n      },\n      \"followers\" : {\n        \"href\" : null,\n        \"total\" : 31\n      },\n      \"genres\" : [ ],\n      \"href\" : \"https://api.spotify.com/v1/artists/4j3YTfoiuiaugTc2cV1eSy\",\n      \"id\" : \"4j3YTfoiuiaugTc2cV1eSy\",\n      \"images\" : [ {\n        \"height\" : 640,\n        \"url\" : \"https://i.scdn.co/image/ab67616d0000b273d5101b1e72bb6d6611432f4a\",\n        \"width\" : 640\n      }, {\n        \"height\" : 300,\n        \"url\" : \"https://i.scdn.co/image/ab67616d00001e02d5101b1e72bb6d6611432f4a\",\n        \"width\" : 300\n      }, {\n        \"height\" : 64,\n        \"url\" : \"https://i.scdn.co/image/ab67616d00004851d5101b1e72bb6d6611432f4a\",\n        \"width\" : 64\n      } ],\n      \"name\" : \"KREATIV MUSE\",\n      \"popularity\" : 37,\n      \"type\" : \"artist\",\n      \"uri\" : \"spotify:artist:4j3YTfoiuiaugTc2cV1eSy\"\n    } ],\n    \"limit\" : 1,\n    \"next\" : \"https://api.spotify.com/v1/search?query=muse&type=artist&market=US&offset=6&limit=1\",\n    \"offset\" : 5,\n    \"previous\" : \"https://api.spotify.com/v1/search?query=muse&type=artist&market=US&offset=4&limit=1\",\n    \"total\" : 946\n  }\n}"